<?xml version="1.0" encoding="UTF-8" standalone="no"?>
<svg
   xmlns:dc="http://purl.org/dc/elements/1.1/"
   xmlns:cc="http://creativecommons.org/ns#"
   xmlns:rdf="http://www.w3.org/1999/02/22-rdf-syntax-ns#"
   xmlns:svg="http://www.w3.org/2000/svg"
   xmlns="http://www.w3.org/2000/svg"
   viewBox="0 0 696.90002 147.28667"
   height="147.28667"
   width="696.90002"
   xml:space="preserve"
   id="svg2"
   version="1.1"><metadata
     id="metadata8"><rdf:RDF><cc:Work
         rdf:about=""><dc:format>image/svg+xml</dc:format><dc:type
           rdf:resource="http://purl.org/dc/dcmitype/StillImage" /></cc:Work></rdf:RDF></metadata><defs
     id="defs6"><linearGradient
       id="linearGradient40"
       spreadMethod="pad"
       gradientTransform="matrix(90.678245,-111.54216,-111.54216,-90.678245,21.177734,104.11035)"
       gradientUnits="userSpaceOnUse"
       y2="0"
       x2="1"
       y1="0"
       x1="0"><stop
         id="stop24"
         offset="0"
         style="stop-opacity:1;stop-color:#f3c238" /><stop
         id="stop26"
         offset="0.005618"
         style="stop-opacity:1;stop-color:#f3c238" /><stop
         id="stop28"
         offset="0.252809"
         style="stop-opacity:1;stop-color:#fff3c6" /><stop
         id="stop30"
         offset="0.30312986"
         style="stop-opacity:1;stop-color:#fff3c6" /><stop
         id="stop32"
         offset="0.595506"
         style="stop-opacity:1;stop-color:#bc8e3d" /><stop
         id="stop34"
         offset="0.60352905"
         style="stop-opacity:1;stop-color:#bc8e3d" /><stop
         id="stop36"
         offset="0.870786"
         style="stop-opacity:1;stop-color:#e7cf85" /><stop
         id="stop38"
         offset="1"
         style="stop-opacity:1;stop-color:#fff3c6" /></linearGradient><linearGradient
       id="linearGradient72"
       spreadMethod="pad"
       gradientTransform="matrix(0,-29.900391,-29.900391,0,487.32812,77.610352)"
       gradientUnits="userSpaceOnUse"
       y2="0"
       x2="1"
       y1="0"
       x1="0"><stop
         id="stop56"
         offset="0"
         style="stop-opacity:1;stop-color:#f3c238" /><stop
         id="stop58"
         offset="0.005618"
         style="stop-opacity:1;stop-color:#f3c238" /><stop
         id="stop60"
         offset="0.252809"
         style="stop-opacity:1;stop-color:#fff3c6" /><stop
         id="stop62"
         offset="0.30312986"
         style="stop-opacity:1;stop-color:#fff3c6" /><stop
         id="stop64"
         offset="0.595506"
         style="stop-opacity:1;stop-color:#bc8e3d" /><stop
         id="stop66"
         offset="0.60352905"
         style="stop-opacity:1;stop-color:#bc8e3d" /><stop
         id="stop68"
         offset="0.870786"
         style="stop-opacity:1;stop-color:#e7cf85" /><stop
         id="stop70"
         offset="1"
         style="stop-opacity:1;stop-color:#fff3c6" /></linearGradient><linearGradient
       id="linearGradient104"
       spreadMethod="pad"
       gradientTransform="matrix(0,-24.614258,-24.614258,0,487.32812,74.967773)"
       gradientUnits="userSpaceOnUse"
       y2="0"
       x2="1"
       y1="0"
       x1="0"><stop
         id="stop88"
         offset="0"
         style="stop-opacity:1;stop-color:#f3c238" /><stop
         id="stop90"
         offset="0.005618"
         style="stop-opacity:1;stop-color:#f3c238" /><stop
         id="stop92"
         offset="0.252809"
         style="stop-opacity:1;stop-color:#fff3c6" /><stop
         id="stop94"
         offset="0.30312986"
         style="stop-opacity:1;stop-color:#fff3c6" /><stop
         id="stop96"
         offset="0.595506"
         style="stop-opacity:1;stop-color:#bc8e3d" /><stop
         id="stop98"
         offset="0.60352905"
         style="stop-opacity:1;stop-color:#bc8e3d" /><stop
         id="stop100"
         offset="0.870786"
         style="stop-opacity:1;stop-color:#e7cf85" /><stop
         id="stop102"
         offset="1"
         style="stop-opacity:1;stop-color:#fff3c6" /></linearGradient><linearGradient
       id="linearGradient136"
       spreadMethod="pad"
       gradientTransform="matrix(0,-29.900391,-29.900391,0,505.13477,95.416992)"
       gradientUnits="userSpaceOnUse"
       y2="0"
       x2="1"
       y1="0"
       x1="0"><stop
         id="stop120"
         offset="0"
         style="stop-opacity:1;stop-color:#f3c238" /><stop
         id="stop122"
         offset="0.005618"
         style="stop-opacity:1;stop-color:#f3c238" /><stop
         id="stop124"
         offset="0.252809"
         style="stop-opacity:1;stop-color:#fff3c6" /><stop
         id="stop126"
         offset="0.30312986"
         style="stop-opacity:1;stop-color:#fff3c6" /><stop
         id="stop128"
         offset="0.595506"
         style="stop-opacity:1;stop-color:#bc8e3d" /><stop
         id="stop130"
         offset="0.60352905"
         style="stop-opacity:1;stop-color:#bc8e3d" /><stop
         id="stop132"
         offset="0.870786"
         style="stop-opacity:1;stop-color:#e7cf85" /><stop
         id="stop134"
         offset="1"
         style="stop-opacity:1;stop-color:#fff3c6" /></linearGradient><linearGradient
       id="linearGradient168"
       spreadMethod="pad"
       gradientTransform="matrix(0,-24.615234,-24.615234,0,505.13477,92.774414)"
       gradientUnits="userSpaceOnUse"
       y2="0"
       x2="1"
       y1="0"
       x1="0"><stop
         id="stop152"
         offset="0"
         style="stop-opacity:1;stop-color:#f3c238" /><stop
         id="stop154"
         offset="0.005618"
         style="stop-opacity:1;stop-color:#f3c238" /><stop
         id="stop156"
         offset="0.252809"
         style="stop-opacity:1;stop-color:#fff3c6" /><stop
         id="stop158"
         offset="0.30312986"
         style="stop-opacity:1;stop-color:#fff3c6" /><stop
         id="stop160"
         offset="0.595506"
         style="stop-opacity:1;stop-color:#bc8e3d" /><stop
         id="stop162"
         offset="0.60352905"
         style="stop-opacity:1;stop-color:#bc8e3d" /><stop
         id="stop164"
         offset="0.870786"
         style="stop-opacity:1;stop-color:#e7cf85" /><stop
         id="stop166"
         offset="1"
         style="stop-opacity:1;stop-color:#fff3c6" /></linearGradient><clipPath
       id="clipPath178"
       clipPathUnits="userSpaceOnUse"><path
         id="path176"
         d="M 0,110.465 H 522.675 V 0 H 0 Z" /></clipPath></defs><g
     transform="matrix(1.3333333,0,0,-1.3333333,0,147.28667)"
     id="g10"><g
       id="g12"><g
         id="g14"><g
           id="g20"><g
             id="g22"><path
               id="path42"
               style="fill:url(#linearGradient40);stroke:none"
               d="m 41.846,106.893 c -6.548,0 -12.648,-3.522 -15.921,-9.192 v 0 L 12.484,74.42 c -1.384,-2.398 -1.14,-5.405 0.614,-7.548 v 0 l 16.556,28.677 c 2.507,4.34 7.177,7.038 12.192,7.038 v 0 h 39.138 c 5.028,0 9.676,-2.683 12.191,-7.04 v 0 l 3.283,-5.687 c 0.22,-0.383 0.13,-0.869 -0.215,-1.146 v 0 l -4.272,-3.439 c -0.204,-0.164 -0.467,-0.23 -0.725,-0.184 v 0 c -0.259,0.049 -0.481,0.206 -0.612,0.433 v 0 l -2.106,3.649 c -2.216,3.837 -6.31,6.201 -10.741,6.201 v 0 H 60.596 c 2.229,-2.724 5.565,-4.305 9.086,-4.305 v 0 h 8.102 c 2.893,0 5.569,-1.542 7.014,-4.05 v 0 l 5.579,-9.662 3.605,3.604 c 0.034,0.021 0.315,0.207 0.348,0.229 v 0 c 0.409,0.183 2.209,2.095 3.607,3.722 v 0 l 4.024,4.027 -5.059,8.762 c -3.283,5.686 -9.353,9.192 -15.918,9.192 v 0 z m 3.197,-11.519 c -4.418,0 -8.535,-2.376 -10.743,-6.201 v 0 L 17.929,60.818 c -2.209,-3.826 -2.209,-8.578 0,-12.406 v 0 L 34.3,20.057 c 2.208,-3.825 6.325,-6.202 10.743,-6.202 v 0 h 32.741 c 4.433,0 8.528,2.365 10.744,6.202 v 0 l 5.004,8.665 -11.835,11.83 -5.59,-9.686 c -0.304,-0.525 -0.865,-0.849 -1.473,-0.849 v 0 h -26.44 c -0.607,0 -1.172,0.326 -1.474,0.851 v 0 L 33.501,53.764 c -0.303,0.526 -0.303,1.177 0.002,1.702 v 0 l 13.219,22.896 c 0.3,0.526 0.865,0.852 1.472,0.852 v 0 h 26.439 c 0.609,0 1.17,-0.325 1.474,-0.852 v 0 l 3.539,-6.129 c 0.175,-0.305 0.191,-0.693 -0.008,-0.982 v 0 C 78.937,70.225 78.71,68.948 79.047,67.693 v 0 c 0.423,-1.58 1.797,-2.801 3.408,-3.061 v 0 c 2.667,-0.431 4.978,1.626 4.978,4.213 v 0 c 0,1.815 -1.162,3.426 -2.894,4.017 v 0 c -0.219,0.076 -0.407,0.214 -0.523,0.412 v 0 l -4.18,7.24 c -1.073,1.86 -3.057,3.004 -5.203,3.004 v 0 H 48.194 c -2.146,0 -4.129,-1.144 -5.202,-3.002 v 0 L 29.773,57.618 c -1.07,-1.851 -1.07,-4.154 0,-6.006 v 0 l 13.22,-22.898 c 1.072,-1.86 3.055,-3.003 5.201,-3.003 v 0 h 26.439 c 2.146,0 4.13,1.145 5.203,3.004 v 0 l 2.833,4.905 c 0.141,0.246 0.391,0.41 0.673,0.443 v 0 c 0.289,0.036 0.563,-0.071 0.756,-0.278 v 0 l 4.112,-4.396 c 0.27,-0.287 0.319,-0.718 0.121,-1.06 v 0 L 84.798,22.21 C 83.353,19.706 80.68,18.161 77.787,18.161 v 0 H 45.043 c -2.885,0 -5.574,1.551 -7.014,4.049 v 0 L 21.658,50.566 c -1.442,2.497 -1.442,5.601 0,8.099 v 0 l 16.371,28.354 c 1.448,2.508 4.12,4.05 7.014,4.05 v 0 h 12.749 c -2.23,2.725 -5.565,4.305 -9.087,4.305 v 0 z M 6.356,63.805 c -3.283,-5.687 -3.283,-12.693 0,-18.38 v 0 L 25.925,11.528 C 29.198,5.861 35.298,2.339 41.846,2.339 v 0 c 3.425,0 6.671,1.537 8.841,4.189 v 0 l 0.096,0.116 h -8.94 c -5.029,0 -9.675,2.683 -12.189,7.037 v 0 L 10.085,47.577 c -2.217,3.838 -2.473,8.5 -0.771,12.53 v 0 l 0.008,0.015 c 0.626,1.469 0.385,3.163 -0.626,4.398 v 0 l -1.129,1.382 z m 94.302,-36.984 c -1.768,-0.283 -3.13,-1.756 -3.496,-3.507 v 0 c -0.128,-0.61 -0.101,-1.168 0.121,-1.909 v 0 c 0.074,-0.246 0.055,-0.513 -0.074,-0.734 v 0 L 93.175,13.683 C 90.66,9.327 86.012,6.644 80.984,6.644 v 0 H 62.522 c -3.424,0 -6.671,-1.537 -8.842,-4.19 v 0 L 53.584,2.339 h 27.4 c 6.565,0 12.635,3.502 15.918,9.189 v 0 l 3.673,6.36 c 0.165,0.288 0.477,0.47 0.813,0.448 v 0 c 2.341,0.017 4.238,1.926 4.238,4.27 v 0 c 0,2.355 -1.916,4.27 -4.271,4.271 v 0 c -0.228,0 -0.461,-0.019 -0.697,-0.056" /></g></g></g></g><g
       id="g44"><g
         id="g46"><g
           id="g52"><g
             id="g54"><path
               id="path74"
               style="fill:url(#linearGradient72);stroke:none"
               d="m 472.45,47.71 h 29.759 V 77.611 H 472.45 Z m 1.999,27.9 h 25.759 v -25.9 h -25.759 z" /></g></g></g></g><g
       id="g76"><g
         id="g78"><g
           id="g84"><g
             id="g86"><path
               id="path106"
               style="fill:url(#linearGradient104);stroke:none"
               d="m 475.079,50.353 h 24.499 v 24.615 h -24.499 z m 2,22.614 h 20.499 V 52.353 h -20.499 z" /></g></g></g></g><g
       id="g108"><g
         id="g110"><g
           id="g116"><g
             id="g118"><path
               id="path138"
               style="fill:url(#linearGradient136);stroke:none"
               d="m 490.256,65.516 h 29.758 v 29.901 h -29.758 z m 2,27.901 h 25.759 V 67.516 h -25.759 z" /></g></g></g></g><g
       id="g140"><g
         id="g142"><g
           id="g148"><g
             id="g150"><path
               id="path170"
               style="fill:url(#linearGradient168);stroke:none"
               d="m 492.886,68.159 h 24.499 v 24.616 h -24.499 z m 2,22.615 h 20.499 V 70.159 h -20.499 z" /></g></g></g></g><g
       id="g172"><g
         clip-path="url(#clipPath178)"
         id="g174"><g
           transform="translate(165.1924,21.001)"
           id="g180"><path
             id="path182"
             style="fill:#373535;fill-opacity:1;fill-rule:nonzero;stroke:none"
             d="m 0,0 c 0.644,0.496 0.967,0.396 0.967,-0.297 v -6.55 c -2.332,-1.985 -4.962,-3.448 -7.888,-4.391 -2.929,-0.942 -6.153,-1.414 -9.676,-1.414 -4.019,0 -7.604,0.695 -10.754,2.084 -3.151,1.388 -5.831,3.349 -8.038,5.88 -2.208,2.53 -3.882,5.555 -5.024,9.079 -1.141,3.523 -1.711,7.443 -1.711,11.759 0,4.465 0.657,8.485 1.972,12.057 1.314,3.572 3.151,6.611 5.507,9.117 2.356,2.504 5.147,4.415 8.373,5.731 3.225,1.314 6.747,1.972 10.568,1.972 3.275,0 6.226,-0.361 8.857,-1.08 2.629,-0.718 5.085,-1.971 7.368,-3.758 v -6.847 c 0,-0.348 -0.1,-0.546 -0.298,-0.595 -0.199,-0.05 -0.422,0.049 -0.67,0.298 -3.87,4.266 -8.807,6.4 -14.81,6.4 -2.779,0 -5.384,-0.497 -7.815,-1.488 -2.431,-0.994 -4.539,-2.457 -6.325,-4.392 -1.787,-1.934 -3.201,-4.329 -4.243,-7.181 -1.042,-2.855 -1.563,-6.14 -1.563,-9.862 0,-7.74 1.699,-13.583 5.099,-17.526 3.397,-3.945 8.272,-5.918 14.624,-5.918 5.954,0 11.113,2.308 15.48,6.922" /></g><g
           transform="translate(193.6968,14.0049)"
           id="g184"><path
             id="path186"
             style="fill:#373535;fill-opacity:1;fill-rule:nonzero;stroke:none"
             d="m 0,0 c 2.927,0 5.495,0.583 7.703,1.75 2.208,1.164 4.056,2.777 5.545,4.837 1.488,2.059 2.604,4.503 3.349,7.331 0.744,2.828 1.116,5.904 1.116,9.228 0,3.324 -0.372,6.401 -1.116,9.229 -0.745,2.828 -1.861,5.284 -3.349,7.368 -1.489,2.083 -3.337,3.708 -5.545,4.874 -2.208,1.166 -4.776,1.75 -7.703,1.75 -2.928,0 -5.496,-0.584 -7.703,-1.75 -2.208,-1.166 -4.056,-2.791 -5.545,-4.874 -1.488,-2.084 -2.604,-4.54 -3.349,-7.368 -0.744,-2.828 -1.116,-5.905 -1.116,-9.229 0,-3.324 0.372,-6.4 1.116,-9.228 0.745,-2.828 1.861,-5.272 3.349,-7.331 1.489,-2.06 3.337,-3.673 5.545,-4.837 C -5.496,0.583 -2.928,0 0,0 m 0,-5.73 c -3.92,0 -7.405,0.722 -10.457,2.164 -3.051,1.442 -5.631,3.457 -7.74,6.044 -2.109,2.585 -3.721,5.632 -4.837,9.139 -1.116,3.508 -1.674,7.325 -1.674,11.455 0,4.128 0.558,7.957 1.674,11.491 1.116,3.531 2.728,6.602 4.837,9.214 2.109,2.612 4.689,4.652 7.74,6.119 3.052,1.467 6.537,2.202 10.457,2.202 3.919,0 7.405,-0.735 10.457,-2.202 3.051,-1.467 5.63,-3.507 7.74,-6.119 2.108,-2.612 3.721,-5.683 4.838,-9.214 1.116,-3.534 1.673,-7.363 1.673,-11.491 0,-4.13 -0.557,-7.947 -1.673,-11.455 C 21.918,8.11 20.305,5.063 18.197,2.478 16.087,-0.109 13.508,-2.124 10.457,-3.566 7.405,-5.008 3.919,-5.73 0,-5.73" /></g><path
           id="path188"
           style="fill:#373535;fill-opacity:1;fill-rule:nonzero;stroke:none"
           d="m 234.704,9.019 h -6.549 v 56.34 h 6.549 z" /><g
           transform="translate(256.584,65.3584)"
           id="g190"><path
             id="path192"
             style="fill:#373535;fill-opacity:1;fill-rule:nonzero;stroke:none"
             d="m 0,0 21.509,-43.613 2.382,-5.731 -0.075,5.88 V 0 h 6.177 v -56.34 h -9.228 l -22.402,45.697 -2.382,5.358 0.075,-5.879 V -56.34 h -6.103 V 0 Z" /></g><g
           transform="translate(344.3301,48.3896)"
           id="g194"><path
             id="path196"
             style="fill:#373535;fill-opacity:1;fill-rule:nonzero;stroke:none"
             d="m 0,0 c 0,2.331 -0.422,4.242 -1.266,5.73 -0.843,1.489 -1.947,2.654 -3.311,3.499 -1.365,0.842 -2.94,1.425 -4.727,1.748 -1.786,0.322 -3.646,0.484 -5.581,0.484 h -6.922 v -24.113 h 5.806 c 2.232,0 4.328,0.197 6.288,0.595 1.96,0.397 3.659,1.078 5.099,2.047 1.438,0.967 2.567,2.27 3.385,3.906 C -0.409,-4.466 0,-2.432 0,0 m 6.847,0.148 c 0,-2.927 -0.509,-5.519 -1.526,-7.777 -1.017,-2.258 -2.468,-4.156 -4.354,-5.693 -1.886,-1.539 -4.155,-2.705 -6.81,-3.498 -2.654,-0.794 -5.619,-1.191 -8.893,-1.191 h -6.996 v -21.36 h -6.549 l -0.074,56.34 h 13.872 c 2.982,0 5.766,-0.324 8.352,-0.968 2.585,-0.646 4.847,-1.65 6.786,-3.015 C 2.596,11.621 4.111,9.873 5.206,7.74 6.299,5.605 6.847,3.076 6.847,0.148" /></g><g
           transform="translate(374.0264,60.2979)"
           id="g198"><path
             id="path200"
             style="fill:#373535;fill-opacity:1;fill-rule:nonzero;stroke:none"
             d="M 0,0 H -0.075 L -9.304,-29.845 H 9.749 Z m 4.316,5.061 19.276,-56.34 h -6.773 l -5.06,16.076 h -22.997 l -5.136,-16.076 h -6.772 l 19.202,56.34 z" /></g><g
           transform="translate(402.6787,13.2607)"
           id="g202"><path
             id="path204"
             style="fill:#373535;fill-opacity:1;fill-rule:nonzero;stroke:none"
             d="M 0,0 V 7.22 C 0,7.518 0.074,7.703 0.224,7.777 0.372,7.852 0.57,7.766 0.819,7.518 3.101,5.136 5.434,3.448 7.814,2.457 10.196,1.463 12.9,0.968 15.927,0.968 c 4.068,0 7.119,0.768 9.154,2.307 2.034,1.537 3.052,4.019 3.052,7.442 0,1.24 -0.237,2.369 -0.707,3.387 -0.473,1.016 -1.143,1.947 -2.01,2.791 -0.869,0.843 -1.91,1.637 -3.126,2.381 -1.216,0.745 -2.567,1.463 -4.056,2.159 l -5.284,2.307 c -1.887,0.793 -3.598,1.661 -5.136,2.605 -1.538,0.942 -2.853,2.008 -3.944,3.2 -1.092,1.19 -1.934,2.567 -2.53,4.131 -0.596,1.562 -0.894,3.36 -0.894,5.395 0,2.331 0.472,4.365 1.414,6.103 0.943,1.736 2.221,3.175 3.833,4.316 1.613,1.141 3.498,1.997 5.657,2.569 2.158,0.569 4.477,0.855 6.959,0.855 2.381,0 4.837,-0.311 7.368,-0.93 2.53,-0.621 4.811,-1.65 6.846,-3.09 V 43.39 c 0,-0.398 -0.086,-0.633 -0.26,-0.707 -0.174,-0.075 -0.385,0.011 -0.632,0.26 -2.035,1.438 -4.057,2.504 -6.067,3.201 -2.008,0.694 -4.329,1.042 -6.958,1.042 -3.523,0 -6.277,-0.633 -8.261,-1.899 -1.985,-1.265 -2.977,-3.263 -2.977,-5.99 0,-1.241 0.224,-2.358 0.67,-3.35 0.446,-0.993 1.066,-1.873 1.86,-2.642 0.793,-0.77 1.737,-1.451 2.829,-2.047 1.09,-0.595 2.256,-1.115 3.498,-1.563 l 5.358,-2.381 c 4.564,-2.035 8.001,-4.304 10.308,-6.81 2.307,-2.506 3.461,-5.619 3.461,-9.34 0,-2.779 -0.472,-5.172 -1.414,-7.182 -0.944,-2.009 -2.27,-3.672 -3.982,-4.986 -1.712,-1.314 -3.771,-2.295 -6.178,-2.939 -2.407,-0.645 -5.073,-0.969 -8,-0.969 -3.274,0 -6.215,0.373 -8.819,1.117 C 4.354,-3.051 2.034,-1.785 0,0" /></g><g
           transform="translate(446.7373,13.2607)"
           id="g206"><path
             id="path208"
             style="fill:#373535;fill-opacity:1;fill-rule:nonzero;stroke:none"
             d="M 0,0 V 7.22 C 0,7.518 0.074,7.703 0.224,7.777 0.372,7.852 0.57,7.766 0.819,7.518 3.101,5.136 5.434,3.448 7.814,2.457 10.196,1.463 12.9,0.968 15.927,0.968 c 4.068,0 7.119,0.768 9.154,2.307 2.034,1.537 3.052,4.019 3.052,7.442 0,1.24 -0.237,2.369 -0.707,3.387 -0.473,1.016 -1.143,1.947 -2.01,2.791 -0.869,0.843 -1.91,1.637 -3.126,2.381 -1.216,0.745 -2.567,1.463 -4.056,2.159 l -5.284,2.307 c -1.887,0.793 -3.598,1.661 -5.136,2.605 -1.538,0.942 -2.853,2.008 -3.944,3.2 -1.092,1.19 -1.934,2.567 -2.53,4.131 -0.596,1.562 -0.894,3.36 -0.894,5.395 0,2.331 0.472,4.365 1.414,6.103 0.943,1.736 2.221,3.175 3.833,4.316 1.613,1.141 3.498,1.997 5.657,2.569 2.158,0.569 4.477,0.855 6.959,0.855 2.381,0 4.837,-0.311 7.368,-0.93 2.53,-0.621 4.811,-1.65 6.846,-3.09 V 43.39 c 0,-0.398 -0.086,-0.633 -0.26,-0.707 -0.174,-0.075 -0.385,0.011 -0.632,0.26 -2.035,1.438 -4.057,2.504 -6.067,3.201 -2.008,0.694 -4.329,1.042 -6.958,1.042 -3.523,0 -6.277,-0.633 -8.261,-1.899 -1.985,-1.265 -2.977,-3.263 -2.977,-5.99 0,-1.241 0.224,-2.358 0.67,-3.35 0.446,-0.993 1.066,-1.873 1.86,-2.642 0.793,-0.77 1.737,-1.451 2.829,-2.047 1.09,-0.595 2.256,-1.115 3.498,-1.563 l 5.358,-2.381 c 4.564,-2.035 8.001,-4.304 10.308,-6.81 2.307,-2.506 3.461,-5.619 3.461,-9.34 0,-2.779 -0.472,-5.172 -1.414,-7.182 -0.944,-2.009 -2.27,-3.672 -3.982,-4.986 -1.712,-1.314 -3.771,-2.295 -6.178,-2.939 -2.407,-0.645 -5.073,-0.969 -8,-0.969 -3.274,0 -6.215,0.373 -8.819,1.117 C 4.354,-3.051 2.034,-1.785 0,0" /></g></g></g></g></svg>